{
  "name": "idiyanale dev testnet rococo",
  "id": "idiyanale_dev_testnet_rococo",
  "chainType": "Live",
  "bootNodes": [],
  "telemetryEndpoints": null,
  "protocolId": "idiyanale_rococo",
  "properties": {
    "ss58Format": 42,
    "tokenDecimals": 12,
    "tokenSymbol": "IDI"
  },
  "relay_chain": "rococo",
  "para_id": 4222,
  "codeSubstitutes": {},
  "genesis": {
    "runtime": {
      "system": {},
      "parachainSystem": null,
      "parachainInfo": {
        "parachainId": 4222
      },
      "sudo": {
        "key": "5HBr9dSKkTjWr5XL7ZHGjQLgxf1ndfin7ERnJd1hN2P7xjTx"
      },
      "treasury": null,
      "balances": {
        "balances": [
          [
            "5EJA1oSrTx7xYMBerrUHLNktA3P89YHJBeTrevotTQab6gEY",
            10000000000000000000
          ],
          [
            "5DJ2NvYUb6idjT6AgMqhRd3Mxw7hx4ZxQwyp1X395897u27m",
            10000000000000000000
          ],
          [
            "5He9bG2frzLPdcvsyE98tyEccLxJ17PM3TCJJoTz3ToiRBci",
            10000000000000000000
          ],
          [
            "5FhDaAGVE38GCDPxq5qXTprHu7DtC2Hn3NBuYrR3k3zQkE47",
            10000000000000000000
          ],
          [
            "5F7CLjAtLR8EKvSGZ96cs1iUujAa3ANPtPwdvNp2kareQjom",
            10000000000000000000
          ]
        ]
      },
      "collatorSelection": {
        "invulnerables": [
          "5HBr9dSKkTjWr5XL7ZHGjQLgxf1ndfin7ERnJd1hN2P7xjTx",
          "5EJA1oSrTx7xYMBerrUHLNktA3P89YHJBeTrevotTQab6gEY"
        ],
        "candidacyBond": 16000000000,
        "desiredCandidates": 0
      },
      "session": {
        "keys": [
          [
            "5HBr9dSKkTjWr5XL7ZHGjQLgxf1ndfin7ERnJd1hN2P7xjTx",
            "5HBr9dSKkTjWr5XL7ZHGjQLgxf1ndfin7ERnJd1hN2P7xjTx",
            {
              "aura": "5HBr9dSKkTjWr5XL7ZHGjQLgxf1ndfin7ERnJd1hN2P7xjTx"
            }
          ],
          [
            "5EJA1oSrTx7xYMBerrUHLNktA3P89YHJBeTrevotTQab6gEY",
            "5EJA1oSrTx7xYMBerrUHLNktA3P89YHJBeTrevotTQab6gEY",
            {
              "aura": "5EJA1oSrTx7xYMBerrUHLNktA3P89YHJBeTrevotTQab6gEY"
            }
          ]
        ]
      },
      "aura": {
        "authorities": []
      },
      "auraExt": null,
      "polkadotXcm": {
        "safeXcmVersion": 2
      },
      "vesting": {
        "vesting": [
          [
            "5EJA1oSrTx7xYMBerrUHLNktA3P89YHJBeTrevotTQab6gEY",
            5,
            50,
            5000000000000000000
          ],
          [
            "5He9bG2frzLPdcvsyE98tyEccLxJ17PM3TCJJoTz3ToiRBci",
            5,
            50,
            5000000000000000000
          ]
        ]
      },
      "operations": {
        "operations": [],
        "versions": [],
        "total": 0
      },
      "workflows": {
        "workflows": [],
        "versions": [],
        "total": 0
      }
    }
  }
}
